1        36   1963667      9086 490859375 1999.768888 
1       148   4552282     36875 1137937500 1999.769778 
1       151   4279307     37701 1069687500 1999.739776 
1       151   4279307     37701 1069687500 1999.739776 
1       151   4279307     37701 1069687500 1999.739776 
