0.052692906666666664 52.7 1
0.55380654395016393 52.7 2
1.0583359310049096 52.7 3
1.5618396251790241 52.7 4
2.1623961288056406 150.9 5
2.6667374621389746 153.2 6
3.1630787954723085 148.3 7
3.6754201288056425 152.4 8
4.1797614621389751 149.5 9
4.6841027954723087 144.9 10
5.1964441288056422 155.8 11
5.6927854621389757 149.0 12
6.1971267954723093 145.3 13
6.7094681288056428 155.5 14
7.2138094621389763 158.4 15
7.7181507954723099 156.5 16
8.2224921288056265 159.6 17
8.7268334621389041 159.9 18
9.2151747954721834 147.0 19
9.7355161288054592 159.0 20
10.231857462138738 153.0 21
10.744198795472014 156.7 22
11.240540128805293 148.8 23
11.74488146213857 148.6 24
12.257222795471847 158.1 25
12.753564128805126 150.9 26
13.257905462138403 151.3 27
13.77024679547168 157.7 28
14.266588128804958 148.5 29
14.770929462138236 151.6 30
15.275270795471513 154.5 31
15.771612128804792 147.9 32
16.275953462138066 148.7 33
16.788294795471344 154.0 34
17.300636128804623 160.2 35
17.804977462137902 156.6 36
18.301318795471182 145.0 37
18.813660128804461 148.5 38
19.31800146213774 145.2 39
19.838342795471018 159.3 40
20.326684128804299 146.0 41
20.831025462137578 147.7 42
21.335366795470858 149.7 43
21.847708128804136 156.1 44
22.344049462137416 146.2 45
22.848390795470696 148.5 46
23.352732128803975 146.1 47
23.865073462137254 149.9 48
24.377414795470532 157.8 49
24.881756128803811 159.4 50
25.378097462137092 150.9 51
25.874438795470372 145.6 52
26.378780128803651 144.9 53
26.89112146213693 152.2 54
27.38746279547021 145.8 55
27.907804128803487 160.1 56
28.404145462136768 151.1 57
28.916486795470046 155.7 58
29.412828128803326 145.0 59
29.925169462136605 154.7 60
30.429510795469884 156.4 61
30.933852128803164 152.6 62
31.438193462136443 148.2 63
31.950534795469721 157.1 64
32.454876128803178 154.6 65
32.967217462136681 159.7 66
33.47155879547018 155.8 67
33.967900128803677 147.5 68
34.488241462137182 159.4 69
34.984582795470679 147.8 70
35.496924128804181 153.5 71
36.001265462137681 152.1 72
36.505606795471181 154.4 73
37.001948128804678 149.3 74
37.51428946213818 159.6 75
38.01863079547168 155.0 76
38.514972128805177 150.0 77
39.027313462138679 156.6 78
39.523654795472176 145.2 79
40.035996128805678 149.3 80
40.54833746213918 159.2 81
41.044678795472677 150.8 82
41.549020128806177 151.7 83
42.045361462139674 146.2 84
42.557702795473176 152.9 85
43.054044128806673 146.6 86
43.558385462140173 146.6 87
44.062726795473672 149.1 88
44.567068128807172 152.4 89
45.071409462140672 150.0 90
45.575750795474171 151.4 91
46.088092128807673 159.6 92
46.58443346214117 147.7 93
47.096774795474673 158.0 94
47.59311612880817 146.1 95
48.097457462141669 149.2 96
48.609798795475172 156.2 97
49.114140128808671 154.4 98
49.610481462142168 148.6 99
50.12282279547567 153.0 100
50.635164128809173 157.1 101
51.13150546214267 147.6 102
51.635846795476169 144.8 103
52.148188128809672 149.3 104
52.660529462143174 155.4 105
53.172870795476676 159.9 106
53.669212128810173 151.1 107
54.173553462143673 151.9 108
54.685894795477175 160.4 109
55.182236128810672 152.1 110
55.686577462144172 152.5 111
56.190918795477671 148.3 112
56.703260128811174 151.7 113
57.207601462144673 150.7 114
57.719942795478175 154.9 115
58.216284128811672 145.0 116
58.728625462145175 152.7 117
59.240966795478677 160.3 118
59.737308128812174 150.5 119
60.249649462145676 157.5 120
60.753990795479176 159.1 121
61.24233212881267 146.3 122
61.754673462146172 149.8 123
62.267014795479675 159.9 124
62.763356128813172 152.7 125
63.259697462146669 146.7 126
63.764038795480168 149.6 127
64.26838012881349 151.4 128
64.780721462146545 156.9 129
65.285062795479604 153.1 130
65.789404128812663 148.7 131
66.301745462145718 154.2 132
66.798086795478781 144.5 133
67.310428128811836 148.7 134
67.830769462144886 160.2 135
68.335110795477945 158.8 136
68.839452128811004 157.1 137
69.335793462144068 145.6 138
69.840134795477127 146.0 139
70.352476128810181 154.0 140
70.856817462143241 155.3 141
71.3611587954763 158.1 142
71.857500128809363 148.7 143
72.361841462142422 150.7 144
72.874182795475477 155.8 145
73.37052412880854 149.5 146
73.882865462141595 157.2 147
74.379206795474659 147.6 148
74.883548128807718 145.9 149
75.387889462140777 147.2 150
75.900230795473831 153.7 151
76.396572128806895 145.8 152
76.90891346213995 151.3 153
77.413254795473009 148.1 154
77.933596128806059 159.6 155
78.437937462139118 155.1 156
78.934278795472181 144.9 157
79.446620128805236 153.5 158
79.950961462138295 155.9 159
80.455302795471354 157.2 160
80.959644128804413 158.0 161
81.463985462137472 160.1 162
81.960326795470536 150.0 163
82.464668128803595 148.7 164
82.97700946213665 158.6 165
83.465350795469718 145.3 166
83.977692128802772 156.5 167
84.474033462135836 145.6 168
84.994374795468886 159.1 169
85.490716128801949 154.1 170
85.987057462135013 146.9 171
86.499398795468068 154.2 172
86.995740128801131 146.7 173
87.508081462134186 153.8 174
88.012422795467245 150.5 175
88.516764128800304 146.3 176
89.021105462133363 146.9 177
89.541446795466413 159.7 178
90.037788128799477 153.3 179
90.550129462132531 159.1 180
91.054470795465591 156.5 181
91.55881212879865 157.9 182
92.063153462131709 154.3 183
92.575494795464763 158.4 184
93.071836128797827 148.1 185
93.584177462130882 152.8 186
94.088518795463941 153.0 187
94.592860128797 155.6 188
95.097201462130059 156.6 189
95.593542795463122 144.8 190
96.105884128796177 152.7 191
96.60222546212924 146.3 192
97.114566795462295 153.8 193
97.610908128795359 148.3 194
98.123249462128413 152.1 195
98.635590795461468 158.9 196
99.131932128794531 153.5 197
99.644273462127586 159.9 198
100.14061479546065 150.3 199
100.63695612879371 144.9 200
101.14929746212677 149.1 201
101.66163879545982 158.2 202
102.15798012879289 148.7 203
102.66232146212595 147.7 204
103.174662795459 157.5 205
103.67100412879206 146.4 206
104.18334546212512 156.8 207
104.68768679545818 155.8 208
105.18402812879124 150.6 209
105.6963694621243 157.7 210
106.19271079545736 153.0 211
106.69705212879042 150.1 212
107.20939346212347 159.5 213
107.70573479545654 146.9 214
108.21807612878959 150.5 215
108.72241746212265 151.0 216
109.21875879545571 146.3 217
109.72310012878877 149.1 218
110.23544146212183 153.9 219
110.74778279545488 157.3 220
111.25212412878794 156.0 221
111.748465462121 149.0 222
112.25280679545406 147.7 223
112.76514812878712 154.8 224
113.26148946212018 145.5 225
113.76583079545324 146.3 226
114.2781721287863 155.8 227
114.77451346211936 148.4 228
115.28685479545241 157.7 229
115.78319612878548 146.7 230
116.28753746211854 149.4 231
116.79187879545159 149.3 232
117.29622012878465 149.9 233
117.80856146211771 155.9 234
118.31290279545077 152.8 235
118.82524412878382 160.1 236
119.32158546211689 151.2 237
119.81792679544995 146.0 238
120.338268128783 160.1 239
120.83460946211606 150.8 240
121.33895079544912 150.7 241
121.84329212878218 151.7 242
122.35563346211524 160.0 243
122.8599747954483 157.0 244
123.36431612878135 154.4 245
123.86865746211441 153.1 246
124.38099879544747 158.9 247
124.88534012878053 160.0 248
125.38968146211359 158.2 249
125.88602279544665 151.7 250
126.39036412877971 150.2 251
126.89470546211277 151.5 252
127.39904679544583 151.1 253
127.91138812877888 158.8 254
128.40772946211254 147.1 255
128.92007079544649 153.5 256
129.41641212878042 146.8 257
129.92075346211436 149.3 258
130.4250947954483 146.2 259
130.93743612878225 153.4 260
131.43377746211618 147.0 261
131.93811879545012 144.9 262
132.45046012878407 149.4 263
132.96280146211802 155.5 264
133.46714279545196 158.6 265
133.9714841287859 155.1 266
134.46782546211983 146.0 267
134.97216679545377 145.7 268
135.48450812878772 153.0 269
135.98884946212166 152.0 270
136.48519079545559 147.3 271
136.99753212878954 158.0 272
137.50187346212348 158.5 273
137.99821479545741 152.4 274
138.50255612879135 152.5 275
139.0148974621253 156.2 276
139.51123879545924 144.5 277
140.03158012879319 157.3 278
140.53592146212713 160.1 279
141.04026279546108 158.5 280
141.528604128795 144.5 281
142.03294546212894 144.8 282
142.5532867954629 158.9 283
143.04962812879683 153.2 284
143.55396946213077 152.2 285
144.0503107954647 146.9 286
144.56265212879865 150.6 287
145.0749934621326 156.6 288
145.57933479546654 159.1 289
146.07567612880047 148.2 290
146.58801746213442 152.7 291
147.10035879546837 158.2 292
147.60470012880231 154.0 293
148.10904146213625 153.6 294
148.61338279547019 154.2 295
149.10972412880412 147.4 296
149.61406546213806 145.3 297
150.12640679547201 153.9 298
150.63074812880595 149.6 299
151.13508946213989 147.3 300
151.64743079547384 153.2 301
152.15977212880779 158.6 302
152.66411346214173 155.0 303
153.16845479547567 152.6 304
153.67279612880961 154.0 305
154.17713746214355 154.6 306
154.68147879547749 157.0 307
155.17782012881142 150.2 308
155.69016146214537 159.6 309
156.1865027954793 153.8 310
156.69884412881325 159.6 311
157.19518546214718 153.4 312
157.69952679548112 152.0 313
158.20386812881506 151.0 314
158.708209462149 149.2 315
159.22055079548295 157.6 316
159.71689212881688 147.1 317
160.22123346215082 148.5 318
160.73357479548477 154.9 319
161.23791612881871 153.0 320
161.75025746215266 158.1 321
162.2545987954866 160.2 322
162.75094012882053 149.3 323
163.26328146215448 154.3 324
163.75962279548841 146.0 325
164.27996412882237 159.2 326
164.76830546215629 146.3 327
165.27264679549023 144.7 328
165.77698812882417 145.0 329
166.29732946215813 159.0 330
166.79367079549206 152.3 331
167.30601212882601 160.0 332
167.81035346215995 156.2 333
168.31469479549389 158.1 334
168.81103612882782 150.9 335
169.30737746216175 144.7 336
169.8197187954957 152.4 337
170.32406012882964 148.6 338
170.82840146216358 151.7 339
171.34074279549753 159.4 340
171.82908412883145 146.2 341
172.3414254621654 149.9 342
172.85376679549935 160.0 343
173.35010812883328 152.5 344
173.84644946216721 146.5 345
174.35879079550116 152.7 346
174.87113212883511 160.4 347
175.37547346216905 157.6 348
175.87981479550299 154.3 349
176.37615612883693 148.9 350
176.88049746217087 147.3 351
177.38483879550481 148.6 352
177.88918012883875 146.8 353
178.39352146217269 148.1 354
178.91386279550665 160.5 355
179.41820412884059 156.0 356
179.92254546217453 152.1 357
180.43488679550848 157.0 358
180.93922812884242 159.1 359
181.44356946217636 160.2 360
181.93991079551029 153.4 361
182.44425212884423 152.1 362
182.94859346217817 151.7 363
183.46093479551212 158.2 364
183.96527612884606 153.5 365
184.46961746218 156.4 366
184.96595879551393 149.9 367
185.46230012884786 145.0 368
185.97464146218181 148.4 369
186.47898279551575 150.6 370
186.98332412884969 147.6 371
187.48766546218363 147.6 372
188.00000679551758 158.4 373
188.49634812885151 150.4 374
189.00068946218545 149.6 375
189.5130307955194 158.0 376
190.00937212885333 152.4 377
190.51371346218727 153.0 378
191.01805479552121 148.9 379
191.52239612885515 145.8 380
192.04273746218911 157.9 381
192.53107879552303 145.1 382
193.04342012885698 154.3 383
193.54776146219092 151.8 384
194.05210279552486 150.4 385
194.56444412885881 158.7 386
195.06878546219275 157.6 387
195.56512679552668 148.0 388
196.06946812886062 150.3 389
196.58180946219457 159.7 390
197.07015079552849 144.7 391
197.59049212886245 160.0 392
198.09483346219639 159.7 393
198.59117479553032 151.6 394
199.08751612886425 145.2 395
199.5998574621982 154.0 396
200.10419879553214 151.8 397
200.60854012886608 149.1 398
201.12088146220003 154.0 399
201.61722279553396 146.2 400
202.13756412886792 160.3 401
202.64190546220186 160.4 402
203.13024679553578 144.6 403
203.65058812886974 157.2 404
204.14692946220367 149.4 405
204.65127079553761 151.7 406
205.15561212887155 153.8 407
205.65195346220548 146.9 408
206.15629479553942 147.4 409
206.66863612887337 154.3 410
207.1649774622073 145.1 411
207.67731879554125 151.8 412
208.17366012887518 147.0 413
208.67800146220912 146.3 414
209.19834279554308 159.9 415
209.69468412887701 148.7 416
210.20702546221096 159.1 417
210.70336679554489 150.2 418
211.21570812887884 159.7 419
211.71204946221278 150.9 420
212.22439079554673 154.8 421
212.72873212888067 152.2 422
213.23307346221461 151.8 423
213.73741479554855 152.7 424
214.23375612888248 145.0 425
214.74609746221643 149.0 426
215.25043879555037 150.2 427
215.75478012888431 151.9 428
216.25912146221825 151.1 429
216.76346279555219 150.4 430
217.26780412888613 148.3 431
217.78814546222009 160.1 432
218.27648679555401 145.7 433
218.78082812888795 146.5 434
219.28516946222189 146.1 435
219.79751079555584 155.2 436
220.30185212888978 151.0 437
220.81419346222373 157.4 438
221.31853479555767 156.5 439
221.82287612889161 153.2 440
222.32721746222555 152.9 441
222.82355879555948 145.2 442
223.32790012889342 146.6 443
223.83224146222736 145.8 444
224.34458279556131 156.5 445
224.84892412889525 158.6 446
225.35326546222919 156.9 447
225.84960679556312 150.1 448
226.35394812889706 146.4 449
226.858289462231 146.1 450
227.37063079556495 157.5 451
227.87497212889889 156.3 452
228.37931346223283 154.4 453
228.88365479556677 151.1 454
229.38799612890071 152.0 455
229.89233746223465 150.2 456
230.38867879556858 144.5 457
230.90102012890253 150.3 458
231.39736146223646 145.4 459
231.90970279557041 152.2 460
232.42204412890436 155.8 461
232.9263854622383 158.3 462
233.42272679557223 152.7 463
233.92706812890617 154.3 464
234.4234094622401 148.4 465
234.93575079557405 159.6 466
235.44009212890799 159.2 467
235.93643346224192 150.5 468
236.44877479557587 154.2 469
236.95311612890981 153.1 470
237.45745746224375 155.8 471
237.96179879557769 156.9 472
238.45814012891162 147.7 473
238.96248146224556 148.8 474
239.4668227955795 145.0 475
239.98716412891346 156.4 476
240.4915054622474 155.6 477
240.99584679558134 151.1 478
241.49218812891527 144.7 479
242.00452946224922 153.5 480
242.50087079558315 145.4 481
243.00521212891709 147.4 482
243.51755346225104 153.1 483
244.01389479558497 144.8 484
244.51823612891891 144.6 485
245.03857746225287 158.8 486
245.5349187955868 149.5 487
246.04726012892075 156.3 488
246.54360146225468 144.9 489
247.05594279558863 150.8 490
247.56028412892258 146.4 491
248.07262546225652 150.0 492
248.58496679559047 154.2 493
249.08130812892441 146.8 494
249.59364946225836 152.9 495
250.0979907955923 154.5 496
250.60233212892624 152.2 497
251.11467346226019 157.6 498
251.61901479559413 156.7 499
252.12335612892807 158.5 500
252.619697462262 145.9 501
253.13203879559595 152.6 502
253.63638012892989 155.4 503
254.13272146226382 148.7 504
254.64506279559777 156.8 505
255.14940412893171 155.7 506
255.65374546226565 154.7 507
256.15808679559916 155.0 508
256.67042812893129 160.2 509
257.17476946226344 159.8 510
257.67111079559561 150.4 511
258.18345212892774 157.5 512
258.67979346225991 148.7 513
259.19213479559204 156.1 514
259.69647612892419 154.1 515
260.20081746225634 152.0 516
260.71315879558847 157.2 517
261.20950012892064 150.4 518
261.72184146225277 154.1 519
262.22618279558492 154.4 520
262.73052412891707 155.6 521
263.23486546224922 157.3 522
263.73120679558139 148.6 523
264.24354812891352 157.2 524
264.73988946224569 148.6 525
265.25223079557782 154.5 526
265.75657212890997 154.8 527
266.25291346224213 144.5 528
266.75725479557428 147.2 529
267.26959612890641 154.4 530
267.76593746223858 147.5 531
268.28627879557069 160.5 532
268.77462012890288 144.6 533
269.27896146223503 145.8 534
269.78330279556718 147.5 535
270.29564412889931 153.1 536
270.80798546223144 160.2 537
271.30432679556361 151.1 538
271.80066812889578 145.2 539
272.30500946222793 144.8 540
272.81735079556006 150.2 541
273.31369212889223 144.6 542
273.81803346222438 145.8 543
274.32237479555653 147.0 544
274.82671612888868 148.5 545
275.33905746222081 159.5 546
275.83539879555298 150.1 547
276.33974012888513 145.6 548
276.86008146221724 158.6 549
277.35642279554941 148.2 550
277.86076412888156 151.0 551
278.36510546221371 150.9 552
278.86144679554587 145.1 553
279.36578812887802 146.9 554
279.87812946221015 150.5 555
280.39047079554229 157.3 556
280.88681212887445 149.1 557
281.3911534622066 145.8 558
281.90349479553873 150.8 559
282.41583612887086 154.8 560
282.91217746220303 144.9 561
283.41651879553518 147.3 562
283.92086012886733 148.5 563
284.42520146219948 151.4 564
284.92154279553165 145.4 565
285.4258841288638 144.6 566
285.93822546219593 152.5 567
286.45056679552806 158.2 568
286.95490812886021 156.3 569
287.45124946219238 147.4 570
287.96359079552451 152.6 571
288.47593212885664 159.0 572
288.98027346218879 159.5 573
289.48461479552094 159.9 574
289.98895612885309 158.2 575
290.48529746218526 147.9 576
290.98963879551741 150.7 577
291.49398012884956 149.3 578
292.00632146218169 155.1 579
292.50266279551386 147.8 580
293.01500412884599 156.6 581
293.51934546217814 152.3 582
294.01568679551031 147.1 583
294.52802812884244 152.3 584
295.03236946217459 148.6 585
295.54471079550672 157.9 586
296.04105212883888 147.4 587
296.55339346217102 155.6 588
297.04973479550318 149.4 589
297.56207612883532 153.8 590
298.06641746216746 155.3 591
298.57075879549961 155.7 592
299.06710012883178 148.3 593
299.58744146216389 160.0 594
300.08378279549606 150.6 595
300.58812412882821 148.0 596
301.09246546216036 148.5 597
301.61280679549247 159.9 598
302.10914812882464 151.0 599
302.62148946215677 159.9 600
303.11783079548894 151.4 601
303.63017212882107 159.2 602
304.12651346215324 147.4 603
304.63085479548539 146.1 604
305.13519612881754 148.6 605
305.63953746214969 145.4 606
306.1598787954818 159.4 607
306.66422012881395 159.1 608
307.16056146214612 151.2 609
307.65690279547829 145.2 610
308.16924412881042 154.7 611
308.66558546214259 145.1 612
309.17792679547472 152.1 613
309.69026812880685 156.4 614
310.18660946213902 146.4 615
310.69895079547115 151.2 616
311.21129212880328 160.3 617
311.70763346213545 152.5 618
312.21997479546758 159.0 619
312.72431612879973 156.3 620
313.2206574621319 151.4 621
313.72499879546405 148.5 622
314.2293401287962 147.7 623
314.73368146212835 150.8 624
315.23802279546049 153.2 625
315.75036412879263 157.1 626
316.25470546212478 156.9 627
316.75904679545692 154.3 628
317.26338812878907 155.3 629
317.76772946212122 153.9 630
318.26407079545339 148.9 631
318.77641212878552 157.5 632
319.27275346211769 148.5 633
319.78509479544982 158.8 634
320.28143612878199 148.6 635
320.78577746211414 149.5 636
321.29811879544627 159.6 637
321.79446012877844 150.9 638
322.29880146211059 148.2 639
322.81114279544272 155.7 640
323.30748412877489 145.8 641
323.827825462107 158.4 642
324.32416679543917 146.6 643
324.82850812877132 149.6 644
325.33284946210347 145.0 645
325.8451907954356 152.2 646
326.35753212876773 157.2 647
326.86187346209988 157.5 648
327.36621479543203 156.8 649
327.8625561287642 146.3 650
328.36689746209635 145.6 651
328.87923879542848 154.2 652
329.37558012876065 145.3 653
329.88792146209278 151.0 654
330.39226279542493 147.9 655
330.89660412875708 151.3 656
331.40094546208923 147.5 657
331.91328679542136 153.4 658
332.41762812875351 150.4 659
332.92996946208564 157.8 660
333.43431079541779 155.4 661
333.94665212874992 158.9 662
334.44299346208209 154.2 663
334.94733479541424 149.8 664
335.45967612874637 158.6 665
335.95601746207853 148.5 666
336.47635879541065 160.0 667
336.9807001287428 158.5 668
337.47704146207496 146.0 669
337.9893827954071 150.3 670
338.50172412873923 157.3 671
338.99806546207139 145.7 672
339.50240679540354 147.0 673
340.01474812873568 151.3 674
340.51908946206783 148.5 675
341.03143079539996 153.9 676
341.54377212873209 159.3 677
342.04011346206426 149.0 678
342.5444547953964 151.5 679
343.04879612872855 153.8 680
343.54513746206072 147.4 681
344.05747879539285 154.5 682
344.56982012872498 159.4 683
345.07416146205713 158.2 684
345.5705027953893 145.9 685
346.08284412872143 152.8 686
346.58718546205358 155.4 687
347.09152679538573 150.7 688
347.59586812871788 150.0 689
348.10020946205003 150.9 690
348.5965507953822 145.9 691
349.10889212871433 151.2 692
349.61323346204648 154.1 693
350.12557479537861 160.0 694
350.6139161287108 145.7 695
351.11825746204295 148.7 696
351.63059879537508 156.4 697
352.13494012870723 154.3 698
352.63928146203938 156.6 699
353.13562279537155 150.2 700
353.6399641287037 152.5 701
354.15230546203583 160.0 702
354.64064679536801 147.1 703
355.15298812870014 150.9 704
355.65732946203229 148.5 705
356.16967079536442 152.6 706
356.67401212869657 154.1 707
357.17035346202874 148.4 708
357.68269479536087 153.1 709
358.195036128693 159.1 710
358.69137746202517 149.2 711
359.2037187953573 158.7 712
359.70806012868945 154.0 713
360.2124014620216 156.2 714
360.72474279535373 160.0 715
361.21308412868592 144.6 716
361.72542546201805 152.6 717
362.23776679535018 158.8 718
362.73410812868235 146.8 719
363.2384494620145 145.6 720
363.75079079534663 154.1 721
364.25513212867878 151.6 722
364.75947346201093 153.1 723
365.26381479534308 155.4 724
365.76815612867523 156.1 725
366.27249746200738 151.8 726
366.77683879533953 150.3 727
367.28918012867166 160.1 728
367.78552146200383 152.9 729
368.28986279533598 155.6 730
368.78620412866815 150.5 731
369.29854546200028 154.3 732
369.79488679533245 146.0 733
370.29922812866459 146.4 734
370.81956946199671 157.9 735
371.31591079532888 152.8 736
371.82825212866101 159.1 737
372.33259346199316 157.5 738
372.82893479532532 148.6 739
373.34127612865746 156.4 740
373.83761746198962 150.6 741
374.34995879532175 156.3 742
374.8543001286539 154.6 743
375.35864146198605 150.9 744
375.85498279531822 145.9 745
376.36732412865035 154.9 746
376.86366546198252 147.7 747
377.36800679531467 144.5 748
377.8803481286468 153.4 749
378.37668946197897 148.8 750
378.8890307953111 152.2 751
379.39337212864325 149.8 752
379.90571346197538 160.1 753
380.40205479530755 153.1 754
380.89839612863972 145.1 755
381.41073746197185 155.5 756
381.90707879530402 146.4 757
382.41142012863617 145.7 758
382.91576146196832 147.7 759
383.42810279530045 152.6 760
383.92444412863262 145.5 761
384.43678546196475 149.8 762
384.94912679529688 153.8 763
385.45346812862903 152.1 764
385.96580946196116 156.0 765
386.47015079529331 153.6 766
386.98249212862544 158.1 767
387.48683346195759 157.2 768
387.98317479528976 147.8 769
388.49551612862189 157.4 770
388.99985746195404 156.3 771
389.50419879528619 152.3 772
390.01654012861832 157.3 773
390.52088146195047 156.2 774
391.02522279528262 154.8 775
391.52956412861477 151.4 776
392.03390546194692 151.7 777
392.53824679527906 151.6 778
393.04258812861121 152.7 779
393.54692946194336 152.5 780
394.05127079527551 148.8 781
394.55561212860766 150.1 782
395.05995346193981 153.4 783
395.56429479527196 152.2 784
396.06863612860411 148.0 785
396.57297746193626 144.6 786
397.08531879526839 155.0 787
397.58966012860054 151.0 788
398.08600146193271 146.2 789
398.60634279526482 158.2 790
399.10268412859699 152.3 791
399.60702546192914 150.1 792
400.11136679526129 148.7 793
400.62370812859342 154.7 794
401.12804946192557 151.2 795
401.63239079525772 147.7 796
402.13673212858987 145.8 797
402.65707346192198 158.3 798
403.16141479525413 158.9 799
403.66575612858628 154.9 800
404.17009746191843 151.3 801
404.68243879525056 155.4 802
405.18678012858271 154.7 803
405.68312146191488 145.5 804
406.19546279524701 152.5 805
406.69980412857916 149.6 806
407.20414546191131 147.9 807
407.71648679524344 159.2 808
408.22082812857559 156.4 809
408.71716946190776 151.2 810
409.22151079523991 150.6 811
409.73385212857204 159.2 812
410.23019346190421 149.8 813
410.74253479523634 153.8 814
411.23887612856851 144.6 815
411.75121746190064 154.4 816
412.24755879523281 148.1 817
412.75190012856496 150.1 818
413.2562414618971 151.1 819
413.76858279522924 156.6 820
414.2649241285614 147.7 821
414.77726546189353 153.3 822
415.28160679522568 149.1 823
415.79394812855782 156.4 824
416.30628946188995 160.5 825
416.79463079522213 145.0 826
417.31497212855425 159.5 827
417.81131346188641 149.7 828
418.32365479521854 155.8 829
418.81999612855071 149.7 830
419.32433746188286 152.3 831
419.82867879521501 148.4 832
420.34102012854714 156.8 833
420.83736146187931 151.5 834
421.34970279521144 157.4 835
421.85404412854359 156.2 836
422.35838546187574 152.9 837
422.86272679520789 152.8 838
423.37506812854002 158.1 839
423.87940946187217 153.6 840
424.37575079520434 147.2 841
424.88009212853649 150.1 842
425.37643346186866 144.8 843
425.88877479520079 153.8 844
426.40111612853292 158.5 845
426.89745746186509 148.4 846
427.40179879519724 144.8 847
427.91414012852937 155.5 848
428.41848146186152 158.8 849
428.91482279519369 152.4 850
429.41916412852584 155.5 851
429.915505461858 150.3 852
430.42784679519013 154.5 853
430.94018812852227 159.0 854
431.43652946185443 147.4 855
431.94087079518658 147.8 856
432.45321212851871 156.6 857
432.95755346185086 155.5 858
433.46189479518301 157.7 859
433.95823612851518 145.2 860
434.47057746184731 150.3 861
434.97491879517946 152.7 862
435.48726012851159 157.6 863
435.97560146184378 144.7 864
436.47994279517593 147.1 865
436.99228412850806 151.9 866
437.50462546184019 155.4 867
438.00896679517234 156.6 868
438.50530812850451 144.6 869
439.01764946183664 148.2 870
439.53799079516875 159.8 871
440.03433212850092 150.5 872
440.54667346183305 155.9 873
441.0510147951652 153.2 874
441.55535612849735 154.5 875
442.0596974618295 154.2 876
442.57203879516163 159.2 877
443.07638012849378 158.9 878
443.57272146182595 146.5 879
444.08506279515808 155.8 880
444.58140412849025 147.2 881
445.0857454618224 147.4 882
445.59808679515453 157.6 883
446.10242812848668 153.7 884
446.61476946181881 160.0 885
447.103110795151 146.2 886
447.62345212848311 159.4 887
448.1117934618153 144.5 888
448.62413479514743 154.9 889
449.13647612847956 160.1 890
449.63281746181173 147.8 891
450.13715879514388 148.5 892
450.64150012847603 151.3 893
451.14584146180817 149.4 894
451.65818279514031 160.4 895
452.15452412847247 152.3 896
452.65086546180464 146.6 897
453.16320679513677 153.1 898
453.65954812846894 146.9 899
454.17188946180107 157.9 900
454.66823079513324 152.6 901
455.17257212846539 150.7 902
455.66891346179756 145.0 903
456.18125479512969 150.7 904
456.69359612846182 157.6 905
457.18993746179399 148.9 906
457.70227879512612 155.6 907
458.19862012845829 145.1 908
458.71096146179042 151.4 909
459.21530279512257 146.7 910
459.71964412845472 148.9 911
460.23198546178685 157.6 912
460.72832679511902 145.0 913
461.24066812845115 153.5 914
461.73700946178332 145.4 915
462.24935079511545 153.7 916
462.7536921284476 153.5 917
463.25003346177976 144.5 918
463.7623747951119 153.9 919
464.26671612844405 156.1 920
464.77105746177619 153.0 921
465.28339879510833 157.6 922
465.77974012844049 152.9 923
466.28408146177264 153.6 924
466.78042279510481 147.2 925
467.29276412843694 156.5 926
467.78910546176911 147.5 927
468.29344679510126 150.8 928
468.79778812843341 147.4 929
469.31012946176554 151.1 930
469.81447079509769 154.3 931
470.31081212842986 147.0 932
470.82315346176199 154.5 933
471.32749479509414 155.8 934
471.82383612842631 149.2 935
472.32817746175846 147.7 936
472.84051879509059 152.9 937
473.33686012842276 147.8 938
473.84920146175489 155.0 939
474.35354279508704 152.5 940
474.85788412841919 152.1 941
475.36222546175134 151.6 942
475.86656679508349 148.0 943
476.37090812841564 146.7 944
476.88324946174777 150.6 945
477.3955907950799 158.7 946
477.88393212841208 145.2 947
478.38827346174423 146.0 948
478.89261479507638 146.3 949
479.39695612840853 144.7 950
479.90929746174066 150.2 951
480.42163879507279 154.0 952
480.92598012840494 153.3 953
481.43832146173708 160.4 954
481.92666279506926 144.6 955
482.43900412840139 149.0 956
482.94334546173354 145.6 957
483.44768679506569 147.6 958
483.95202812839784 148.4 959
484.45636946172999 151.7 960
484.96071079506214 149.2 961
485.46505212839429 151.1 962
485.96939346172644 149.0 963
486.47373479505859 149.7 964
486.98607612839072 157.8 965
487.48241746172289 145.9 966
487.99475879505502 155.8 967
488.50710012838715 159.5 968
489.0114414617193 159.5 969
489.50778279505147 150.1 970
490.0201241283836 158.0 971
490.51646546171577 152.1 972
491.02080679504792 154.0 973
491.52514812838007 151.8 974
492.02948946171222 152.0 975
492.54183079504435 157.9 976
493.03817212837652 152.1 977
493.54251346170867 147.6 978
494.0548547950408 157.4 979
494.55119612837296 152.4 980
495.04753746170513 145.7 981
495.55987879503726 152.3 982
496.07222012836939 158.5 983
496.57656146170154 156.8 984
497.07290279503371 148.3 985
497.58524412836584 159.2 986
498.08958546169799 155.0 987
498.59392679503014 152.4 988
499.09826812836229 154.5 989
499.59460946169446 147.5 990
500.10695079502659 158.4 991
