0  0 0.0%
0  0 0.0%
1  0 0.0%
1  1856 0.98986666666666667%
2  0 0.0%
2  94084 50.178133333333328%
3  0 0.0%
3  188192 100.36906666666667%
4  0 0.0%
4  186612 99.52640000000001%
5  0 0.0%
5  188656 100.61653333333334%
6  0 0.0%
6  186836 99.645866666666677%
7  0 0.0%
7  188176 100.36053333333332%
8  0 0.0%
8  186612 99.52640000000001%
9  0 0.0%
9  188176 100.36053333333332%
10  0 0.0%
10  186612 99.52640000000001%
11  0 0.0%
11  188760 100.67200000000001%
12  0 0.0%
12  186732 99.590400000000002%
13  0 0.0%
13  188176 100.36053333333332%
14  0 0.0%
14  186676 99.560533333333339%
15  0 0.0%
15  188112 100.32639999999999%
16  0 0.0%
16  186612 99.52640000000001%
17  0 0.0%
17  188240 100.39466666666668%
18  0 0.0%
18  186612 99.52640000000001%
19  0 0.0%
19  188176 100.36053333333332%
20  0 0.0%
20  186676 99.560533333333339%
21  0 0.0%
21  188176 100.36053333333332%
22  0 0.0%
22  188176 100.36053333333332%
23  0 0.0%
23  187092 99.78240000000001%
24  0 0.0%
24  186836 99.645866666666677%
25  0 0.0%
25  188176 100.36053333333332%
26  0 0.0%
26  186612 99.52640000000001%
27  0 0.0%
27  188176 100.36053333333332%
28  0 0.0%
28  188176 100.36053333333332%
29  0 0.0%
29  186676 99.560533333333339%
30  0 0.0%
30  188176 100.36053333333332%
31  0 0.0%
31  186676 99.560533333333339%
32  0 0.0%
32  188112 100.32639999999999%
33  0 0.0%
33  186612 99.52640000000001%
34  0 0.0%
34  188176 100.36053333333332%
35  0 0.0%
35  186676 99.560533333333339%
36  0 0.0%
36  188176 100.36053333333332%
37  0 0.0%
37  188048 100.29226666666666%
38  0 0.0%
38  186676 99.560533333333339%
39  0 0.0%
39  188176 100.36053333333332%
40  0 0.0%
40  186676 99.560533333333339%
41  0 0.0%
41  188176 100.36053333333332%
42  0 0.0%
42  186612 99.52640000000001%
43  0 0.0%
43  188240 100.39466666666668%
44  0 0.0%
44  188048 100.29226666666666%
45  0 0.0%
45  186676 99.560533333333339%
46  0 0.0%
46  188176 100.36053333333332%
47  0 0.0%
47  187092 99.78240000000001%
48  0 0.0%
48  186772 99.611733333333333%
49  0 0.0%
49  188176 100.36053333333332%
50  0 0.0%
50  188176 100.36053333333332%
51  0 0.0%
51  186612 99.52640000000001%
52  0 0.0%
52  188112 100.32639999999999%
53  0 0.0%
53  186676 99.560533333333339%
54  0 0.0%
54  188176 100.36053333333332%
55  0 0.0%
55  186612 99.52640000000001%
56  0 0.0%
56  188176 100.36053333333332%
57  0 0.0%
57  188176 100.36053333333332%
58  0 0.0%
58  186676 99.560533333333339%
59  0 0.0%
59  188176 100.36053333333332%
60  0 0.0%
60  186548 99.492266666666666%
61  0 0.0%
61  188240 100.39466666666668%
62  0 0.0%
62  186612 99.52640000000001%
63  0 0.0%
63  188176 100.36053333333332%
64  0 0.0%
64  186676 99.560533333333339%
65  0 0.0%
65  188112 100.32639999999999%
66  0 0.0%
66  188176 100.36053333333332%
67  0 0.0%
67  186612 99.52640000000001%
68  0 0.0%
68  188176 100.36053333333332%
69  0 0.0%
69  186676 99.560533333333339%
70  0 0.0%
70  188176 100.36053333333332%
71  0 0.0%
71  186612 99.52640000000001%
72  0 0.0%
72  188176 100.36053333333332%
73  0 0.0%
73  188176 100.36053333333332%
74  0 0.0%
74  186612 99.52640000000001%
75  0 0.0%
75  188176 100.36053333333332%
76  0 0.0%
76  186612 99.52640000000001%
77  0 0.0%
77  188240 100.39466666666668%
78  0 0.0%
78  186612 99.52640000000001%
79  0 0.0%
79  188176 100.36053333333332%
80  0 0.0%
80  186612 99.52640000000001%
81  0 0.0%
81  188176 100.36053333333332%
82  0 0.0%
82  188176 100.36053333333332%
83  0 0.0%
83  186676 99.560533333333339%
84  0 0.0%
84  188176 100.36053333333332%
85  0 0.0%
85  186612 99.52640000000001%
86  0 0.0%
86  188176 100.36053333333332%
87  0 0.0%
87  186612 99.52640000000001%
88  0 0.0%
88  188176 100.36053333333332%
89  0 0.0%
89  188176 100.36053333333332%
90  0 0.0%
90  186612 99.52640000000001%
91  0 0.0%
91  188176 100.36053333333332%
92  0 0.0%
92  186676 99.560533333333339%
93  0 0.0%
93  188176 100.36053333333332%
94  0 0.0%
94  186612 99.52640000000001%
95  0 0.0%
95  188656 100.61653333333334%
96  0 0.0%
96  186836 99.645866666666677%
97  0 0.0%
97  188176 100.36053333333332%
98  0 0.0%
98  186548 99.492266666666666%
99  0 0.0%
99  188112 100.32639999999999%
100  0 0.0%
100  186612 99.52640000000001%
101  0 0.0%
101  188176 100.36053333333332%
102  0 0.0%
102  186740 99.594666666666669%
103  0 0.0%
103  188048 100.29226666666666%
104  0 0.0%
104  188240 100.39466666666668%
105  0 0.0%
105  186676 99.560533333333339%
106  0 0.0%
106  188112 100.32639999999999%
107  0 0.0%
107  186676 99.560533333333339%
108  0 0.0%
108  188176 100.36053333333332%
109  0 0.0%
109  186676 99.560533333333339%
110  0 0.0%
110  188112 100.32639999999999%
111  0 0.0%
111  188176 100.36053333333332%
112  0 0.0%
112  186676 99.560533333333339%
113  0 0.0%
113  188176 100.36053333333332%
114  0 0.0%
114  186612 99.52640000000001%
115  0 0.0%
115  188176 100.36053333333332%
116  0 0.0%
116  186676 99.560533333333339%
117  0 0.0%
117  188112 100.32639999999999%
118  0 0.0%
118  186612 99.52640000000001%
119  0 0.0%
119  188176 100.36053333333332%
120  0 0.0%
120  188176 100.36053333333332%
121  0 0.0%
121  186612 99.52640000000001%
122  0 0.0%
122  188240 100.39466666666668%
123  0 0.0%
123  186612 99.52640000000001%
124  0 0.0%
124  188112 100.32639999999999%
125  0 0.0%
125  186676 99.560533333333339%
126  0 0.0%
126  188176 100.36053333333332%
127  0 0.0%
127  188176 100.36053333333332%
128  0 0.0%
128  186612 99.52640000000001%
129  0 0.0%
129  188176 100.36053333333332%
130  0 0.0%
130  186612 99.52640000000001%
131  0 0.0%
131  188240 100.39466666666668%
132  0 0.0%
132  186612 99.52640000000001%
133  0 0.0%
133  188176 100.36053333333332%
134  0 0.0%
134  186676 99.560533333333339%
135  0 0.0%
135  188112 100.32639999999999%
136  0 0.0%
136  188176 100.36053333333332%
137  0 0.0%
137  186740 99.594666666666669%
138  0 0.0%
138  188048 100.29226666666666%
139  0 0.0%
139  186676 99.560533333333339%
140  0 0.0%
140  188176 100.36053333333332%
141  0 0.0%
141  186676 99.560533333333339%
142  0 0.0%
142  188176 100.36053333333332%
143  0 0.0%
143  188112 100.32639999999999%
144  0 0.0%
144  186612 99.52640000000001%
145  0 0.0%
145  188176 100.36053333333332%
146  0 0.0%
146  186676 99.560533333333339%
147  0 0.0%
147  188176 100.36053333333332%
148  0 0.0%
148  186676 99.560533333333339%
149  0 0.0%
149  188048 100.29226666666666%
150  0 0.0%
150  188176 100.36053333333332%
151  0 0.0%
151  186612 99.52640000000001%
152  0 0.0%
152  188176 100.36053333333332%
153  0 0.0%
153  186676 99.560533333333339%
154  0 0.0%
154  188112 100.32639999999999%
155  0 0.0%
155  187092 99.78240000000001%
156  0 0.0%
156  188336 100.44586666666666%
157  0 0.0%
157  186676 99.560533333333339%
158  0 0.0%
158  188176 100.36053333333332%
159  0 0.0%
159  186612 99.52640000000001%
160  0 0.0%
160  188240 100.39466666666668%
161  0 0.0%
161  186612 99.52640000000001%
162  0 0.0%
162  188176 100.36053333333332%
163  0 0.0%
163  186612 99.52640000000001%
164  0 0.0%
164  188176 100.36053333333332%
165  0 0.0%
165  188176 100.36053333333332%
166  0 0.0%
166  186676 99.560533333333339%
167  0 0.0%
167  188112 100.32639999999999%
168  0 0.0%
168  186612 99.52640000000001%
169  0 0.0%
169  188176 100.36053333333332%
170  0 0.0%
170  186676 99.560533333333339%
171  0 0.0%
171  188176 100.36053333333332%
172  0 0.0%
172  186676 99.560533333333339%
173  0 0.0%
173  188176 100.36053333333332%
174  0 0.0%
174  188112 100.32639999999999%
175  0 0.0%
175  186676 99.560533333333339%
176  0 0.0%
176  188176 100.36053333333332%
177  0 0.0%
177  186612 99.52640000000001%
178  0 0.0%
178  188176 100.36053333333332%
179  0 0.0%
179  186676 99.560533333333339%
180  0 0.0%
180  188176 100.36053333333332%
181  0 0.0%
181  188112 100.32639999999999%
182  0 0.0%
182  186676 99.560533333333339%
183  0 0.0%
183  188176 100.36053333333332%
184  0 0.0%
184  186612 99.52640000000001%
185  0 0.0%
185  188176 100.36053333333332%
186  0 0.0%
186  186676 99.560533333333339%
187  0 0.0%
187  188176 100.36053333333332%
188  0 0.0%
188  186612 99.52640000000001%
189  0 0.0%
189  188176 100.36053333333332%
190  0 0.0%
190  188112 100.32639999999999%
191  0 0.0%
191  186676 99.560533333333339%
192  0 0.0%
192  188176 100.36053333333332%
193  0 0.0%
193  186676 99.560533333333339%
194  0 0.0%
194  188112 100.32639999999999%
195  0 0.0%
195  186676 99.560533333333339%
196  0 0.0%
196  188176 100.36053333333332%
197  0 0.0%
197  188112 100.32639999999999%
198  0 0.0%
198  186676 99.560533333333339%
199  0 0.0%
199  188176 100.36053333333332%
200  0 0.0%
200  186612 99.52640000000001%
201  0 0.0%
201  188176 100.36053333333332%
202  0 0.0%
202  186548 99.492266666666666%
203  0 0.0%
203  188176 100.36053333333332%
204  0 0.0%
204  188112 100.32639999999999%
205  0 0.0%
205  186612 99.52640000000001%
206  0 0.0%
206  188176 100.36053333333332%
207  0 0.0%
207  186676 99.560533333333339%
208  0 0.0%
208  188176 100.36053333333332%
209  0 0.0%
209  186612 99.52640000000001%
210  0 0.0%
210  188176 100.36053333333332%
211  0 0.0%
211  186676 99.560533333333339%
212  0 0.0%
212  188176 100.36053333333332%
213  0 0.0%
213  188176 100.36053333333332%
214  0 0.0%
214  186612 99.52640000000001%
215  0 0.0%
215  187156 99.816533333333339%
216  0 0.0%
216  188272 100.41173333333333%
217  0 0.0%
217  186612 99.52640000000001%
218  0 0.0%
218  188176 100.36053333333332%
219  0 0.0%
219  188176 100.36053333333332%
220  0 0.0%
220  186676 99.560533333333339%
221  0 0.0%
221  188176 100.36053333333332%
222  0 0.0%
222  186612 99.52640000000001%
223  0 0.0%
223  188112 100.32639999999999%
224  0 0.0%
224  186740 99.594666666666669%
225  0 0.0%
225  188112 100.32639999999999%
226  0 0.0%
226  188176 100.36053333333332%
227  0 0.0%
227  186676 99.560533333333339%
228  0 0.0%
228  188112 100.32639999999999%
229  0 0.0%
229  186676 99.560533333333339%
230  0 0.0%
230  188176 100.36053333333332%
231  0 0.0%
231  186676 99.560533333333339%
232  0 0.0%
232  188112 100.32639999999999%
233  0 0.0%
233  186676 99.560533333333339%
234  0 0.0%
234  188176 100.36053333333332%
235  0 0.0%
235  188176 100.36053333333332%
236  0 0.0%
236  186676 99.560533333333339%
237  0 0.0%
237  188176 100.36053333333332%
238  0 0.0%
238  186612 99.52640000000001%
239  0 0.0%
239  188176 100.36053333333332%
240  0 0.0%
240  186612 99.52640000000001%
241  0 0.0%
241  188176 100.36053333333332%
242  0 0.0%
242  186676 99.560533333333339%
243  0 0.0%
243  188176 100.36053333333332%
244  0 0.0%
244  188176 100.36053333333332%
245  0 0.0%
245  186612 99.52640000000001%
246  0 0.0%
246  188176 100.36053333333332%
247  0 0.0%
247  186612 99.52640000000001%
248  0 0.0%
248  188176 100.36053333333332%
249  0 0.0%
249  186676 99.560533333333339%
250  0 0.0%
250  188176 100.36053333333332%
251  0 0.0%
251  186676 99.560533333333339%
252  0 0.0%
252  188048 100.29226666666666%
253  0 0.0%
253  188176 100.36053333333332%
254  0 0.0%
254  186612 99.52640000000001%
255  0 0.0%
255  188112 100.32639999999999%
256  0 0.0%
256  186612 99.52640000000001%
257  0 0.0%
257  188240 100.39466666666668%
258  0 0.0%
258  188112 100.32639999999999%
259  0 0.0%
259  186676 99.560533333333339%
260  0 0.0%
260  188176 100.36053333333332%
261  0 0.0%
261  186676 99.560533333333339%
262  0 0.0%
262  188176 100.36053333333332%
263  0 0.0%
263  186612 99.52640000000001%
264  0 0.0%
264  188112 100.32639999999999%
265  0 0.0%
265  186676 99.560533333333339%
266  0 0.0%
266  188176 100.36053333333332%
267  0 0.0%
267  188176 100.36053333333332%
268  0 0.0%
268  186676 99.560533333333339%
269  0 0.0%
269  188112 100.32639999999999%
270  0 0.0%
270  186612 99.52640000000001%
271  0 0.0%
271  188176 100.36053333333332%
272  0 0.0%
272  186676 99.560533333333339%
273  0 0.0%
273  188176 100.36053333333332%
274  0 0.0%
274  188176 100.36053333333332%
275  0 0.0%
275  187092 99.78240000000001%
276  0 0.0%
276  186836 99.645866666666677%
277  0 0.0%
277  188176 100.36053333333332%
278  0 0.0%
278  186612 99.52640000000001%
279  0 0.0%
279  188176 100.36053333333332%
280  0 0.0%
280  186676 99.560533333333339%
281  0 0.0%
281  188176 100.36053333333332%
282  0 0.0%
282  188112 100.32639999999999%
283  0 0.0%
283  186612 99.52640000000001%
284  0 0.0%
284  188176 100.36053333333332%
285  0 0.0%
285  186676 99.560533333333339%
286  0 0.0%
286  188176 100.36053333333332%
287  0 0.0%
287  186676 99.560533333333339%
288  0 0.0%
288  188112 100.32639999999999%
289  0 0.0%
289  188176 100.36053333333332%
290  0 0.0%
290  186612 99.52640000000001%
291  0 0.0%
291  188176 100.36053333333332%
292  0 0.0%
292  186676 99.560533333333339%
293  0 0.0%
293  188176 100.36053333333332%
294  0 0.0%
294  186676 99.560533333333339%
295  0 0.0%
295  188176 100.36053333333332%
296  0 0.0%
296  186612 99.52640000000001%
297  0 0.0%
297  188112 100.32639999999999%
298  0 0.0%
298  188176 100.36053333333332%
299  0 0.0%
299  186676 99.560533333333339%
300  0 0.0%
300  188176 100.36053333333332%
301  0 0.0%
301  186612 99.52640000000001%
302  0 0.0%
302  188176 100.36053333333332%
303  0 0.0%
303  186612 99.52640000000001%
304  0 0.0%
304  188112 100.32639999999999%
305  0 0.0%
305  188176 100.36053333333332%
306  0 0.0%
306  186548 99.492266666666666%
307  0 0.0%
307  188176 100.36053333333332%
308  0 0.0%
308  186676 99.560533333333339%
309  0 0.0%
309  188176 100.36053333333332%
310  0 0.0%
310  186676 99.560533333333339%
311  0 0.0%
311  188112 100.32639999999999%
312  0 0.0%
312  188112 100.32639999999999%
313  0 0.0%
313  186676 99.560533333333339%
314  0 0.0%
314  188176 100.36053333333332%
315  0 0.0%
315  186676 99.560533333333339%
316  0 0.0%
316  188176 100.36053333333332%
317  0 0.0%
317  186612 99.52640000000001%
318  0 0.0%
318  188176 100.36053333333332%
319  0 0.0%
319  188112 100.32639999999999%
320  0 0.0%
320  186676 99.560533333333339%
321  0 0.0%
321  188176 100.36053333333332%
322  0 0.0%
322  186676 99.560533333333339%
323  0 0.0%
323  188112 100.32639999999999%
324  0 0.0%
324  186612 99.52640000000001%
325  0 0.0%
325  188176 100.36053333333332%
326  0 0.0%
326  186676 99.560533333333339%
327  0 0.0%
327  188176 100.36053333333332%
328  0 0.0%
328  188176 100.36053333333332%
329  0 0.0%
329  186676 99.560533333333339%
330  0 0.0%
330  188112 100.32639999999999%
331  0 0.0%
331  186676 99.560533333333339%
332  0 0.0%
332  188112 100.32639999999999%
333  0 0.0%
333  186676 99.560533333333339%
334  0 0.0%
334  188176 100.36053333333332%
335  0 0.0%
335  187196 99.83786666666667%
336  0 0.0%
336  188232 100.39039999999999%
337  0 0.0%
337  186612 99.52640000000001%
338  0 0.0%
338  188176 100.36053333333332%
339  0 0.0%
339  186676 99.560533333333339%
340  0 0.0%
340  188176 100.36053333333332%
341  0 0.0%
341  186676 99.560533333333339%
342  0 0.0%
342  188176 100.36053333333332%
343  0 0.0%
343  188176 100.36053333333332%
344  0 0.0%
344  186612 99.52640000000001%
345  0 0.0%
345  188176 100.36053333333332%
346  0 0.0%
346  186612 99.52640000000001%
347  0 0.0%
347  188176 100.36053333333332%
348  0 0.0%
348  186676 99.560533333333339%
349  0 0.0%
349  188176 100.36053333333332%
350  0 0.0%
350  188112 100.32639999999999%
351  0 0.0%
351  186676 99.560533333333339%
352  0 0.0%
352  188176 100.36053333333332%
353  0 0.0%
353  186612 99.52640000000001%
354  0 0.0%
354  188176 100.36053333333332%
355  0 0.0%
355  186612 99.52640000000001%
356  0 0.0%
356  188112 100.32639999999999%
357  0 0.0%
357  188112 100.32639999999999%
358  0 0.0%
358  186676 99.560533333333339%
359  0 0.0%
359  188176 100.36053333333332%
360  0 0.0%
360  186612 99.52640000000001%
361  0 0.0%
361  188176 100.36053333333332%
362  0 0.0%
362  186676 99.560533333333339%
363  0 0.0%
363  188176 100.36053333333332%
364  0 0.0%
364  186612 99.52640000000001%
365  0 0.0%
365  188176 100.36053333333332%
366  0 0.0%
366  188176 100.36053333333332%
367  0 0.0%
367  186612 99.52640000000001%
368  0 0.0%
368  188176 100.36053333333332%
369  0 0.0%
369  186612 99.52640000000001%
370  0 0.0%
370  188176 100.36053333333332%
371  0 0.0%
371  186676 99.560533333333339%
372  0 0.0%
372  188112 100.32639999999999%
373  0 0.0%
373  188176 100.36053333333332%
374  0 0.0%
374  186612 99.52640000000001%
375  0 0.0%
375  188176 100.36053333333332%
376  0 0.0%
376  186676 99.560533333333339%
377  0 0.0%
377  188176 100.36053333333332%
378  0 0.0%
378  186676 99.560533333333339%
379  0 0.0%
379  188112 100.32639999999999%
380  0 0.0%
380  186676 99.560533333333339%
381  0 0.0%
381  188176 100.36053333333332%
382  0 0.0%
382  188048 100.29226666666666%
383  0 0.0%
383  186676 99.560533333333339%
384  0 0.0%
384  188240 100.39466666666668%
385  0 0.0%
385  186612 99.52640000000001%
386  0 0.0%
386  188176 100.36053333333332%
387  0 0.0%
387  186612 99.52640000000001%
388  0 0.0%
388  188176 100.36053333333332%
389  0 0.0%
389  188176 100.36053333333332%
390  0 0.0%
390  186676 99.560533333333339%
391  0 0.0%
391  188112 100.32639999999999%
392  0 0.0%
392  186740 99.594666666666669%
393  0 0.0%
393  188112 100.32639999999999%
394  0 0.0%
394  186612 99.52640000000001%
395  0 0.0%
395  188656 100.61653333333334%
396  0 0.0%
396  186836 99.645866666666677%
397  0 0.0%
397  188176 100.36053333333332%
398  0 0.0%
398  186612 99.52640000000001%
399  0 0.0%
399  188176 100.36053333333332%
400  0 0.0%
400  186612 99.52640000000001%
401  0 0.0%
401  188176 100.36053333333332%
402  0 0.0%
402  186676 99.560533333333339%
403  0 0.0%
403  188048 100.29226666666666%
404  0 0.0%
404  188176 100.36053333333332%
405  0 0.0%
405  186676 99.560533333333339%
406  0 0.0%
406  188112 100.32639999999999%
407  0 0.0%
407  186676 99.560533333333339%
408  0 0.0%
408  188112 100.32639999999999%
409  0 0.0%
409  186676 99.560533333333339%
410  0 0.0%
410  188240 100.39466666666668%
411  0 0.0%
411  188112 100.32639999999999%
412  0 0.0%
412  186740 99.594666666666669%
413  0 0.0%
413  188112 100.32639999999999%
414  0 0.0%
414  186676 99.560533333333339%
415  0 0.0%
415  188112 100.32639999999999%
416  0 0.0%
416  186676 99.560533333333339%
417  0 0.0%
417  188176 100.36053333333332%
418  0 0.0%
418  186612 99.52640000000001%
419  0 0.0%
419  188176 100.36053333333332%
420  0 0.0%
420  188176 100.36053333333332%
421  0 0.0%
421  186612 99.52640000000001%
422  0 0.0%
422  188176 100.36053333333332%
423  0 0.0%
423  186676 99.560533333333339%
424  0 0.0%
424  188112 100.32639999999999%
425  0 0.0%
425  186740 99.594666666666669%
426  0 0.0%
426  188112 100.32639999999999%
427  0 0.0%
427  188176 100.36053333333332%
428  0 0.0%
428  186612 99.52640000000001%
429  0 0.0%
429  188176 100.36053333333332%
430  0 0.0%
430  186676 99.560533333333339%
431  0 0.0%
431  188112 100.32639999999999%
432  0 0.0%
432  186676 99.560533333333339%
433  0 0.0%
433  188176 100.36053333333332%
434  0 0.0%
434  186612 99.52640000000001%
435  0 0.0%
435  188176 100.36053333333332%
436  0 0.0%
436  188176 100.36053333333332%
437  0 0.0%
437  186676 99.560533333333339%
438  0 0.0%
438  188176 100.36053333333332%
439  0 0.0%
439  186676 99.560533333333339%
440  0 0.0%
440  188112 100.32639999999999%
441  0 0.0%
441  186612 99.52640000000001%
442  0 0.0%
442  188240 100.39466666666668%
443  0 0.0%
443  188112 100.32639999999999%
444  0 0.0%
444  186676 99.560533333333339%
445  0 0.0%
445  188176 100.36053333333332%
446  0 0.0%
446  186676 99.560533333333339%
447  0 0.0%
447  188112 100.32639999999999%
448  0 0.0%
448  186676 99.560533333333339%
449  0 0.0%
449  188176 100.36053333333332%
450  0 0.0%
450  186612 99.52640000000001%
451  0 0.0%
451  188176 100.36053333333332%
452  0 0.0%
452  188176 100.36053333333332%
453  0 0.0%
453  186676 99.560533333333339%
454  0 0.0%
454  188112 100.32639999999999%
455  0 0.0%
455  187092 99.78240000000001%
456  0 0.0%
456  186836 99.645866666666677%
457  0 0.0%
457  188112 100.32639999999999%
458  0 0.0%
458  188048 100.29226666666666%
459  0 0.0%
459  186676 99.560533333333339%
460  0 0.0%
460  188176 100.36053333333332%
461  0 0.0%
461  186612 99.52640000000001%
462  0 0.0%
462  188176 100.36053333333332%
463  0 0.0%
463  186612 99.52640000000001%
464  0 0.0%
464  188240 100.39466666666668%
465  0 0.0%
465  188176 100.36053333333332%
466  0 0.0%
466  186612 99.52640000000001%
467  0 0.0%
467  188112 100.32639999999999%
468  0 0.0%
468  186740 99.594666666666669%
469  0 0.0%
469  188176 100.36053333333332%
470  0 0.0%
470  186548 99.492266666666666%
471  0 0.0%
471  188176 100.36053333333332%
472  0 0.0%
472  186676 99.560533333333339%
473  0 0.0%
473  188112 100.32639999999999%
474  0 0.0%
474  188176 100.36053333333332%
475  0 0.0%
475  186676 99.560533333333339%
476  0 0.0%
476  188176 100.36053333333332%
477  0 0.0%
477  186612 99.52640000000001%
478  0 0.0%
478  188176 100.36053333333332%
479  0 0.0%
479  186676 99.560533333333339%
480  0 0.0%
480  188112 100.32639999999999%
481  0 0.0%
481  188176 100.36053333333332%
482  0 0.0%
482  186676 99.560533333333339%
483  0 0.0%
483  188176 100.36053333333332%
484  0 0.0%
484  186676 99.560533333333339%
485  0 0.0%
485  188112 100.32639999999999%
486  0 0.0%
486  186676 99.560533333333339%
487  0 0.0%
487  188176 100.36053333333332%
488  0 0.0%
488  186676 99.560533333333339%
489  0 0.0%
489  188112 100.32639999999999%
490  0 0.0%
490  188176 100.36053333333332%
491  0 0.0%
491  186612 99.52640000000001%
492  0 0.0%
492  188176 100.36053333333332%
493  0 0.0%
493  186612 99.52640000000001%
494  0 0.0%
494  188240 100.39466666666668%
495  0 0.0%
495  186612 99.52640000000001%
496  0 0.0%
496  188176 100.36053333333332%
497  0 0.0%
497  188176 100.36053333333332%
498  0 0.0%
498  186612 99.52640000000001%
499  0 0.0%
499  188176 100.36053333333332%
500  0 0.0%
500  186676 99.560533333333339%
