0  0.0
1  0.0
2  0.0
3  0.0
4  89600.0
5  156800.0
6  168000.0
7  56000.0
8  168000.0
9  123200.0
10  112000.0
11  112000.0
12  100800.0
13  201600.0
14  190400.0
15  212800.0
16  168000.0
17  212800.0
18  224000.0
19  190400.0
20  179200.0
21  212800.0
22  190400.0
23  212800.0
24  190400.0
25  123200.0
26  212800.0
27  212800.0
28  179200.0
29  190400.0
30  168000.0
31  268800.0
32  224000.0
33  235200.0
34  201600.0
35  212800.0
36  168000.0
37  246400.0
38  224000.0
39  179200.0
40  168000.0
41  280000.0
42  224000.0
43  190400.0
44  224000.0
45  156800.0
46  179200.0
47  224000.0
48  212800.0
49  201600.0
50  257600.0
51  212800.0
52  156800.0
53  224000.0
54  156800.0
55  224000.0
56  235200.0
57  112000.0
58  179200.0
59  224000.0
60  224000.0
61  246400.0
62  246400.0
63  235200.0
64  224000.0
65  313600.0
66  224000.0
67  168000.0
68  224000.0
69  190400.0
70  235200.0
71  235200.0
72  201600.0
73  235200.0
74  168000.0
75  201600.0
76  201600.0
77  190400.0
78  179200.0
79  190400.0
80  257600.0
81  291200.0
82  257600.0
83  123200.0
84  179200.0
85  190400.0
86  179200.0
87  235200.0
88  212800.0
89  201600.0
90  168000.0
91  212800.0
92  112000.0
93  190400.0
94  190400.0
95  212800.0
96  179200.0
97  201600.0
98  224000.0
99  257600.0
100  179200.0
101  212800.0
102  190400.0
103  257600.0
104  179200.0
105  246400.0
106  224000.0
107  212800.0
108  190400.0
109  224000.0
110  134400.0
111  235200.0
112  257600.0
113  134400.0
114  179200.0
115  168000.0
116  224000.0
117  212800.0
118  168000.0
119  212800.0
120  257600.0
121  190400.0
122  201600.0
123  291200.0
124  224000.0
125  190400.0
126  168000.0
127  257600.0
128  168000.0
129  145600.0
130  156800.0
131  235200.0
132  268800.0
133  212800.0
134  224000.0
135  168000.0
136  201600.0
137  145600.0
138  156800.0
139  268800.0
140  201600.0
141  190400.0
142  145600.0
143  268800.0
144  268800.0
145  212800.0
146  246400.0
147  190400.0
148  168000.0
149  224000.0
150  190400.0
151  201600.0
152  190400.0
153  156800.0
154  201600.0
155  190400.0
156  224000.0
157  246400.0
158  201600.0
159  224000.0
160  179200.0
161  168000.0
162  257600.0
163  201600.0
164  246400.0
165  224000.0
166  190400.0
167  168000.0
168  212800.0
169  190400.0
170  224000.0
171  190400.0
172  179200.0
173  268800.0
174  224000.0
175  190400.0
176  201600.0
177  179200.0
178  179200.0
179  190400.0
180  190400.0
181  168000.0
182  212800.0
183  201600.0
184  201600.0
185  201600.0
186  201600.0
187  235200.0
188  257600.0
189  212800.0
190  224000.0
191  212800.0
192  257600.0
193  235200.0
194  201600.0
195  179200.0
196  235200.0
197  179200.0
198  168000.0
199  224000.0
200  145600.0
201  235200.0
202  168000.0
203  112000.0
204  212800.0
205  179200.0
206  112000.0
207  190400.0
208  291200.0
209  190400.0
210  168000.0
211  179200.0
212  212800.0
213  268800.0
214  235200.0
215  134400.0
216  179200.0
217  168000.0
218  257600.0
219  179200.0
220  179200.0
221  156800.0
222  190400.0
223  212800.0
224  134400.0
225  268800.0
226  190400.0
227  246400.0
228  235200.0
229  156800.0
230  190400.0
231  212800.0
232  145600.0
233  179200.0
234  235200.0
235  212800.0
236  235200.0
237  112000.0
238  268800.0
239  145600.0
240  168000.0
241  201600.0
242  246400.0
243  201600.0
244  257600.0
245  201600.0
246  190400.0
247  190400.0
248  201600.0
249  235200.0
250  246400.0
251  257600.0
252  212800.0
253  190400.0
254  201600.0
255  190400.0
256  235200.0
257  190400.0
258  224000.0
259  190400.0
260  224000.0
261  168000.0
262  190400.0
263  156800.0
264  212800.0
265  201600.0
266  168000.0
267  235200.0
268  190400.0
269  212800.0
270  201600.0
271  179200.0
272  134400.0
273  201600.0
274  201600.0
275  212800.0
276  268800.0
277  168000.0
278  201600.0
279  168000.0
280  212800.0
281  201600.0
282  246400.0
283  201600.0
284  190400.0
285  235200.0
286  280000.0
287  212800.0
288  268800.0
289  168000.0
290  190400.0
291  224000.0
292  179200.0
293  246400.0
294  201600.0
295  190400.0
296  179200.0
297  190400.0
298  179200.0
299  168000.0
300  145600.0
301  235200.0
302  268800.0
303  224000.0
304  212800.0
305  212800.0
306  156800.0
307  190400.0
308  168000.0
309  190400.0
310  235200.0
311  212800.0
312  201600.0
313  179200.0
314  246400.0
315  224000.0
316  302400.0
317  179200.0
318  201600.0
319  168000.0
320  212800.0
321  291200.0
322  179200.0
323  168000.0
324  268800.0
325  168000.0
326  201600.0
327  134400.0
328  235200.0
329  190400.0
330  201600.0
331  291200.0
332  190400.0
333  201600.0
334  168000.0
335  179200.0
336  257600.0
337  190400.0
338  212800.0
339  201600.0
340  224000.0
341  179200.0
342  179200.0
343  190400.0
344  190400.0
345  201600.0
346  190400.0
347  268800.0
348  134400.0
349  201600.0
350  168000.0
351  212800.0
352  235200.0
353  179200.0
354  145600.0
355  190400.0
356  246400.0
357  179200.0
358  280000.0
359  190400.0
360  280000.0
361  212800.0
362  302400.0
363  179200.0
364  224000.0
365  224000.0
366  179200.0
367  212800.0
368  201600.0
369  212800.0
370  257600.0
371  179200.0
372  168000.0
373  235200.0
374  235200.0
375  235200.0
376  168000.0
377  179200.0
378  168000.0
379  156800.0
380  112000.0
381  212800.0
382  224000.0
383  179200.0
384  190400.0
385  123200.0
386  156800.0
387  179200.0
388  201600.0
389  201600.0
390  246400.0
391  190400.0
392  212800.0
393  145600.0
394  145600.0
395  246400.0
396  100800.0
397  179200.0
398  156800.0
399  280000.0
400  179200.0
401  291200.0
402  168000.0
403  179200.0
404  224000.0
405  224000.0
406  190400.0
407  123200.0
408  212800.0
409  190400.0
410  201600.0
411  212800.0
412  257600.0
413  246400.0
414  201600.0
415  201600.0
416  212800.0
417  235200.0
418  201600.0
419  212800.0
420  268800.0
421  212800.0
422  179200.0
423  168000.0
424  190400.0
425  235200.0
426  257600.0
427  212800.0
428  168000.0
429  246400.0
430  224000.0
431  235200.0
432  224000.0
433  201600.0
434  224000.0
435  212800.0
436  179200.0
437  212800.0
438  235200.0
439  268800.0
440  235200.0
441  156800.0
442  201600.0
443  224000.0
444  201600.0
445  268800.0
446  156800.0
447  168000.0
448  291200.0
449  190400.0
450  246400.0
451  235200.0
452  201600.0
453  235200.0
454  224000.0
455  156800.0
456  179200.0
457  212800.0
458  179200.0
459  168000.0
460  235200.0
461  156800.0
462  257600.0
463  201600.0
464  168000.0
465  224000.0
466  246400.0
467  257600.0
468  212800.0
469  123200.0
470  212800.0
471  179200.0
472  179200.0
473  212800.0
474  179200.0
475  224000.0
476  190400.0
477  235200.0
478  134400.0
479  257600.0
480  168000.0
481  179200.0
482  156800.0
483  201600.0
484  291200.0
485  201600.0
486  235200.0
487  224000.0
488  179200.0
489  212800.0
490  168000.0
491  246400.0
492  212800.0
493  246400.0
494  134400.0
495  168000.0
496  190400.0
497  179200.0
498  235200.0
499  224000.0
500  224000.0
